Practicum 1
…
setwd("/Users/gianniquaedvlieg/Documents/GitHub/VU-CWIDM/files")
url <- "CWIDM_practicum_1_dataset.csv"
D <- read_csv(url)

## Rows: 234 Columns: 24
## ── Column specification ──────────────────────────────────────────────────────────────────────
## Delimiter: ","
## dbl (24): SATIS1, SATIS2, SATIS3, SATIS4, SATIS5, SATIS6, SATIS7, SATIS8, SA...
## 
## ℹ Use `spec()` to retrieve the full column specification for this data.
## ℹ Specify the column types or set `show_col_types = FALSE` to quiet this message.

D

## # A tibble: 234 × 24
##    SATIS1 SATIS2 SATIS3 SATIS4 SATIS5 SATIS6 SATIS7 SATIS8 SATIS9 SATIS10
##     <dbl>  <dbl>  <dbl>  <dbl>  <dbl>  <dbl>  <dbl>  <dbl>  <dbl>   <dbl>
##  1      5      4      6      5      4      5      3      2      3       4
##  2      5      4      6      6      4      6      2      3      3       5
##  3      5      4      5      4      4      5      1      4      1       4
##  4      4      4      5      5      1      5      2      5      3       4
##  5      1      4      5      2      3      5      5      6      5       6
##  6      5      4      5      5      4      5      4      4      4       4
##  7      4      1      5      4      1      4      1      4      1       1
##  8      4      4      4      4      4      4      4      4      4       4
##  9      4      4      6      5      4      5      1      4      4       4
## 10      4      4      5      4      4      5      4      3      4       4
## # ℹ 224 more rows
## # ℹ 14 more variables: SATIS11 <dbl>, SATIS12 <dbl>, SuWB1 <dbl>, SuWB2 <dbl>,
## #   SuWB3 <dbl>, SuWB4 <dbl>, SuWB5 <dbl>, SuWB6 <dbl>, SuWB7 <dbl>,
## #   Leeftijd <dbl>, Geslacht <dbl>, Werk <dbl>, Opleiding <dbl>,
## #   SNSaccount <dbl>
…
Nu willen we het juiste item hercoderen.

D <- mutate(D, recSATIS8 = 8 - SATIS8) 
D

## # A tibble: 234 × 25
##    SATIS1 SATIS2 SATIS3 SATIS4 SATIS5 SATIS6 SATIS7 SATIS8 SATIS9 SATIS10
##     <dbl>  <dbl>  <dbl>  <dbl>  <dbl>  <dbl>  <dbl>  <dbl>  <dbl>   <dbl>
##  1      5      4      6      5      4      5      3      2      3       4
##  2      5      4      6      6      4      6      2      3      3       5
##  3      5      4      5      4      4      5      1      4      1       4
##  4      4      4      5      5      1      5      2      5      3       4
##  5      1      4      5      2      3      5      5      6      5       6
##  6      5      4      5      5      4      5      4      4      4       4
##  7      4      1      5      4      1      4      1      4      1       1
##  8      4      4      4      4      4      4      4      4      4       4
##  9      4      4      6      5      4      5      1      4      4       4
## 10      4      4      5      4      4      5      4      3      4       4
## # ℹ 224 more rows
## # ℹ 15 more variables: SATIS11 <dbl>, SATIS12 <dbl>, SuWB1 <dbl>, SuWB2 <dbl>,
## #   SuWB3 <dbl>, SuWB4 <dbl>, SuWB5 <dbl>, SuWB6 <dbl>, SuWB7 <dbl>,
## #   Leeftijd <dbl>, Geslacht <dbl>, Werk <dbl>, Opleiding <dbl>,
## #   SNSaccount <dbl>, recSATIS8 <dbl>
…
Opdracht 8: Variabele aanmaken.

Nu we weten welke items we moeten gebruiken voor het vormen van twee
betrouwbare schalen die onze variabelen zullen representeren kunnen we
deze variabelen ook daadwerkelijk aanmaken.

D <- mutate(D, Prestatietevredenheid = rowMeans(select(D, SATIS2, SATIS5, SATIS7, SATIS9, SATIS10, SATIS12), na.rm = T), Lichaamstevredenheid = rowMeans(select(D, SATIS1, SATIS3, SATIS4, SATIS6, recSATIS8, SATIS11), na.rm = T))
D

## # A tibble: 234 × 27
##    SATIS1 SATIS2 SATIS3 SATIS4 SATIS5 SATIS6 SATIS7 SATIS8 SATIS9 SATIS10
##     <dbl>  <dbl>  <dbl>  <dbl>  <dbl>  <dbl>  <dbl>  <dbl>  <dbl>   <dbl>
##  1      5      4      6      5      4      5      3      2      3       4
##  2      5      4      6      6      4      6      2      3      3       5
##  3      5      4      5      4      4      5      1      4      1       4
##  4      4      4      5      5      1      5      2      5      3       4
##  5      1      4      5      2      3      5      5      6      5       6
##  6      5      4      5      5      4      5      4      4      4       4
##  7      4      1      5      4      1      4      1      4      1       1
##  8      4      4      4      4      4      4      4      4      4       4
##  9      4      4      6      5      4      5      1      4      4       4
## 10      4      4      5      4      4      5      4      3      4       4
## # ℹ 224 more rows
## # ℹ 17 more variables: SATIS11 <dbl>, SATIS12 <dbl>, SuWB1 <dbl>, SuWB2 <dbl>,
## #   SuWB3 <dbl>, SuWB4 <dbl>, SuWB5 <dbl>, SuWB6 <dbl>, SuWB7 <dbl>,
## #   Leeftijd <dbl>, Geslacht <dbl>, Werk <dbl>, Opleiding <dbl>,
## #   SNSaccount <dbl>, recSATIS8 <dbl>, Prestatietevredenheid <dbl>,
## #   Lichaamstevredenheid <dbl>
…
D <- mutate(D, recSuWB3 = 8 - SuWB3, recSuWB4 = 8 - SuWB4, recSuWB7 = 8 - SuWB7) 
D

## # A tibble: 234 × 30
##    SATIS1 SATIS2 SATIS3 SATIS4 SATIS5 SATIS6 SATIS7 SATIS8 SATIS9 SATIS10
##     <dbl>  <dbl>  <dbl>  <dbl>  <dbl>  <dbl>  <dbl>  <dbl>  <dbl>   <dbl>
##  1      5      4      6      5      4      5      3      2      3       4
##  2      5      4      6      6      4      6      2      3      3       5
##  3      5      4      5      4      4      5      1      4      1       4
##  4      4      4      5      5      1      5      2      5      3       4
##  5      1      4      5      2      3      5      5      6      5       6
##  6      5      4      5      5      4      5      4      4      4       4
##  7      4      1      5      4      1      4      1      4      1       1
##  8      4      4      4      4      4      4      4      4      4       4
##  9      4      4      6      5      4      5      1      4      4       4
## 10      4      4      5      4      4      5      4      3      4       4
## # ℹ 224 more rows
## # ℹ 20 more variables: SATIS11 <dbl>, SATIS12 <dbl>, SuWB1 <dbl>, SuWB2 <dbl>,
## #   SuWB3 <dbl>, SuWB4 <dbl>, SuWB5 <dbl>, SuWB6 <dbl>, SuWB7 <dbl>,
## #   Leeftijd <dbl>, Geslacht <dbl>, Werk <dbl>, Opleiding <dbl>,
## #   SNSaccount <dbl>, recSATIS8 <dbl>, Prestatietevredenheid <dbl>,
## #   Lichaamstevredenheid <dbl>, recSuWB3 <dbl>, recSuWB4 <dbl>, recSuWB7 <dbl>
…
D <- mutate(D, SuWB = rowMeans(select(D, SuWB1, SuWB2, recSuWB3, recSuWB4, SuWB5, SuWB6, recSuWB7), na.rm = T))

Opdracht 10: Dataset overzichtelijk houden.

Indien je werkt met een grote dataset, of van nature wat chaotisch
van aard bent, kan het fijn zijn om de items die je niet meer gebruikt
te verwijderen.

D <- select(D, Leeftijd:SNSaccount, Prestatietevredenheid, Lichaamstevredenheid, SuWB)
D

## # A tibble: 234 × 8
##    Leeftijd Geslacht  Werk Opleiding SNSaccount Prestatietevredenheid
##       <dbl>    <dbl> <dbl>     <dbl>      <dbl>                 <dbl>
##  1       24        2     3         5          2                  3.67
##  2       22        2     3         5          2                  3.83
##  3       25        2     3         5          2                  3.17
##  4       22        1     3         5          2                  2.67
##  5       22        2     3         5          2                  4.33
##  6       23        2     3         5          2                  4.17
##  7       24        2     3         5          2                  1   
##  8       23        2     3         5          2                  4   
##  9       25        2     3         5          2                  4   
## 10       23        2     2         5          2                  4.17
## # ℹ 224 more rows
## # ℹ 2 more variables: Lichaamstevredenheid <dbl>, SuWB <dbl>
