Practicum 2
…
setwd("/Users/gianniquaedvlieg/Documents/GitHub/VU-CWIDM/files") 
url <- "CWIDM_practicum_2_dataset.csv" 
D <- read_csv(url)

## Rows: 234 Columns: 7
## ── Column specification ──────────────────────────────────────────────────────────────────────
## Delimiter: ","
## dbl (7): SuWB, Prestatietevredenheid, Lichaamstevredenheid, Extraversion, Ne...
## 
## ℹ Use `spec()` to retrieve the full column specification for this data.
## ℹ Specify the column types or set `show_col_types = FALSE` to quiet this message.

D

## # A tibble: 234 × 7
##     SuWB Prestatietevredenheid Lichaamstevredenheid Extraversion Neuroticism
##    <dbl>                 <dbl>                <dbl>        <dbl>       <dbl>
##  1  3.25                 NA                    3.62         4           4.56
##  2  3.25                  2.57                 3.5          4.5         3.89
##  3  3                     3.43                 3            4.12        4.22
##  4  3.38                  3.86                 2.5          3.25        4.67
##  5  4.25                  4.71                 4.75         6           2.44
##  6  4.12                  3.43                 4.12         4.25        4.11
##  7  2.25                  3.86                 1.12         3.5         3.78
##  8  4                    NA                    4            4           4   
##  9  2.5                   3.29                 3.88         2.5         4.89
## 10  4                     3.71                 4.12         4.62        3.11
## # ℹ 224 more rows
## # ℹ 2 more variables: Zelfver <dbl>, Dummy_typeblootstelling <dbl>
…
